{
  "project_info": {
    "project_number": "234447573411",
    "firebase_url": "https://dmkitwings-66ae4.firebaseio.com",
    "project_id": "dmkitwings-66ae4",
    "storage_bucket": "dmkitwings-66ae4.appspot.com"
  },
  "client": [
    {
      "client_info": {
        "mobilesdk_app_id": "1:234447573411:android:79824b9d7342e797",
        "android_client_info": {
          "package_name": "com.dci.dmkitwings"
        }
      },
      "oauth_client": [
        {
          "client_id": "234447573411-dairh46nr8ftpkqi8m3f8dvb3ttcqekh.apps.googleusercontent.com",
          "client_type": 3
        }
      ],
      "api_key": [
        {
          "current_key": "AIzaSyAmAknAVEb4TF2o9zNCsV2SFT8Or14xWeo"
        }
      ],
      "services": {
        "analytics_service": {
          "status": 1
        },
        "appinvite_service": {
          "status": 1,
          "other_platform_oauth_client": []
        },
        "ads_service": {
          "status": 2
        }
      }
    }
  ],
  "configuration_version": "1"
}